postId,userId,picture,text,date
1,mm01,pic1,text1,12.12.2020. 18:00
2,mm01,pic2,text2,12.12.2020. 18:00
3,mm01,pic3,text3,12.12.2020. 18:00
4,user3,pic4,text4,12.12.2020. 18:00
5,per,pic5,text5,12.12.2020. 18:00
